UART/UART_RX/UART_RX.vcd
$date
	Thu Aug 21 16:48:35 2025
$end
$version
	ModelSim Version 10.5b
$end
$timescale
	1ps
$end

$scope module UART_RX_tb $end
$var parameter 32 ! TX_CLK_PERIOD $end
$var reg 1 " CLK_tb $end
$var reg 1 # RST_tb $end
$var reg 1 $ RX_IN_tb $end
$var reg 6 % Prescale_tb [5:0] $end
$var reg 1 & PAR_EN_tb $end
$var reg 1 ' PAR_TYP_tb $end
$var wire 1 ( data_valid_tb $end
$var wire 1 ) P_DATA_tb [7] $end
$var wire 1 * P_DATA_tb [6] $end
$var wire 1 + P_DATA_tb [5] $end
$var wire 1 , P_DATA_tb [4] $end
$var wire 1 - P_DATA_tb [3] $end
$var wire 1 . P_DATA_tb [2] $end
$var wire 1 / P_DATA_tb [1] $end
$var wire 1 0 P_DATA_tb [0] $end
$var wire 1 1 Parity_Error_tb $end
$var wire 1 2 Stop_Error_tb $end
$var reg 5 3 operation_count [4:0] $end
$var reg 1 4 TX_CLK $end

$scope task initialize $end
$upscope $end

$scope task reset $end
$upscope $end

$scope task send_bit $end
$var reg 1 5 bit_value $end
$upscope $end

$scope function calculate_parity $end
$upscope $end

$scope task send_uart_frame $end
$var reg 8 6 tx_data [7:0] $end
$var reg 1 7 tx_par_en $end
$var reg 1 8 tx_par_typ $end
$var reg 1 9 corner_case_par $end
$var reg 1 : corner_case_stp $end
$var reg 1 ; calculated_parity_bit $end
$var integer 32 < i $end
$upscope $end

$scope task strt_glitch $end
$upscope $end

$scope module DUT $end
$var wire 1 = CLK $end
$var wire 1 > RST $end
$var wire 1 ? RX_IN $end
$var wire 1 @ Prescale [5] $end
$var wire 1 A Prescale [4] $end
$var wire 1 B Prescale [3] $end
$var wire 1 C Prescale [2] $end
$var wire 1 D Prescale [1] $end
$var wire 1 E Prescale [0] $end
$var wire 1 F PAR_EN $end
$var wire 1 G PAR_TYP $end
$var wire 1 ( data_valid $end
$var wire 1 ) P_DATA [7] $end
$var wire 1 * P_DATA [6] $end
$var wire 1 + P_DATA [5] $end
$var wire 1 , P_DATA [4] $end
$var wire 1 - P_DATA [3] $end
$var wire 1 . P_DATA [2] $end
$var wire 1 / P_DATA [1] $end
$var wire 1 0 P_DATA [0] $end
$var wire 1 1 Parity_Error $end
$var wire 1 2 Stop_Error $end
$var wire 1 H enable $end
$var wire 1 I edge_cnt [4] $end
$var wire 1 J edge_cnt [3] $end
$var wire 1 K edge_cnt [2] $end
$var wire 1 L edge_cnt [1] $end
$var wire 1 M edge_cnt [0] $end
$var wire 1 N bit_cnt [3] $end
$var wire 1 O bit_cnt [2] $end
$var wire 1 P bit_cnt [1] $end
$var wire 1 Q bit_cnt [0] $end
$var wire 1 R data_samp_en $end
$var wire 1 S sampled_bit $end
$var wire 1 T par_chk_en $end
$var wire 1 U strt_chk_en $end
$var wire 1 V strt_glitch $end
$var wire 1 W stp_chk_en $end
$var wire 1 X deser_en $end

$scope module ebc1 $end
$var wire 1 = clk $end
$var wire 1 > reset $end
$var wire 1 H enable $end
$var wire 1 F par_en $end
$var wire 1 @ prescale [5] $end
$var wire 1 A prescale [4] $end
$var wire 1 B prescale [3] $end
$var wire 1 C prescale [2] $end
$var wire 1 D prescale [1] $end
$var wire 1 E prescale [0] $end
$var reg 5 Y edge_cnt [4:0] $end
$var reg 4 Z bit_cnt [3:0] $end
$var reg 4 [ frame_size [3:0] $end
$upscope $end

$scope module ds1 $end
$var wire 1 = clk $end
$var wire 1 > reset $end
$var wire 1 ? RX_IN $end
$var wire 1 R data_samp_en $end
$var wire 1 I edge_cnt [4] $end
$var wire 1 J edge_cnt [3] $end
$var wire 1 K edge_cnt [2] $end
$var wire 1 L edge_cnt [1] $end
$var wire 1 M edge_cnt [0] $end
$var wire 1 @ prescale [5] $end
$var wire 1 A prescale [4] $end
$var wire 1 B prescale [3] $end
$var wire 1 C prescale [2] $end
$var wire 1 D prescale [1] $end
$var wire 1 E prescale [0] $end
$var reg 1 \ sampled_bit $end
$var reg 1 ] sample_1 $end
$var reg 1 ^ sample_2 $end
$var reg 1 _ sample_3 $end
$upscope $end

$scope module pc1 $end
$var wire 1 = clk $end
$var wire 1 > reset $end
$var wire 1 ) P_DATA [7] $end
$var wire 1 * P_DATA [6] $end
$var wire 1 + P_DATA [5] $end
$var wire 1 , P_DATA [4] $end
$var wire 1 - P_DATA [3] $end
$var wire 1 . P_DATA [2] $end
$var wire 1 / P_DATA [1] $end
$var wire 1 0 P_DATA [0] $end
$var wire 1 F par_en $end
$var wire 1 G par_typ $end
$var wire 1 T par_chk_en $end
$var wire 1 S sampled_bit $end
$var wire 1 N bit_cnt [3] $end
$var wire 1 O bit_cnt [2] $end
$var wire 1 P bit_cnt [1] $end
$var wire 1 Q bit_cnt [0] $end
$var reg 1 ` par_err $end
$var reg 1 a par_bit $end
$upscope $end

$scope module sc1 $end
$var wire 1 = clk $end
$var wire 1 > reset $end
$var wire 1 U strt_chk_en $end
$var wire 1 S sampled_bit $end
$var wire 1 N bit_cnt [3] $end
$var wire 1 O bit_cnt [2] $end
$var wire 1 P bit_cnt [1] $end
$var wire 1 Q bit_cnt [0] $end
$var reg 1 b strt_glitch $end
$upscope $end

$scope module sc2 $end
$var wire 1 = clk $end
$var wire 1 > reset $end
$var wire 1 W stp_chk_en $end
$var wire 1 S sampled_bit $end
$var wire 1 N bit_cnt [3] $end
$var wire 1 O bit_cnt [2] $end
$var wire 1 P bit_cnt [1] $end
$var wire 1 Q bit_cnt [0] $end
$var reg 1 c stp_err $end
$upscope $end

$scope module d1 $end
$var wire 1 = clk $end
$var wire 1 > reset $end
$var wire 1 S sampled_bit $end
$var wire 1 X deser_en $end
$var reg 8 d P_DATA [7:0] $end
$var reg 3 e bit_count [2:0] $end
$upscope $end

$scope module fsm1 $end
$var wire 1 = clk $end
$var wire 1 > reset $end
$var wire 1 F par_en $end
$var wire 1 ? RX_IN $end
$var wire 1 I edge_cnt [4] $end
$var wire 1 J edge_cnt [3] $end
$var wire 1 K edge_cnt [2] $end
$var wire 1 L edge_cnt [1] $end
$var wire 1 M edge_cnt [0] $end
$var wire 1 N bit_cnt [3] $end
$var wire 1 O bit_cnt [2] $end
$var wire 1 P bit_cnt [1] $end
$var wire 1 Q bit_cnt [0] $end
$var wire 1 1 par_err $end
$var wire 1 V strt_glitch $end
$var wire 1 2 stp_err $end
$var wire 1 @ Prescale [5] $end
$var wire 1 A Prescale [4] $end
$var wire 1 B Prescale [3] $end
$var wire 1 C Prescale [2] $end
$var wire 1 D Prescale [1] $end
$var wire 1 E Prescale [0] $end
$var reg 1 f enable $end
$var reg 1 g data_samp_en $end
$var reg 1 h par_chk_en $end
$var reg 1 i strt_chk_en $end
$var reg 1 j stp_chk_en $end
$var reg 1 k deser_en $end
$var reg 1 l data_valid $end
$var reg 3 m current_state [2:0] $end
$var reg 3 n next_state [2:0] $end
$var reg 4 o frame_size [3:0] $end
$upscope $end
$upscope $end
$upscope $end

$scope begin std $end
$upscope $end
$enddefinitions $end
#0
$dumpvars
1"
1#
1$
b1000 %
0&
0'
b0 3
04
b0 Y
b0 Z
bx [
1\
x]
x^
x_
x`
xa
xb
xc
bx d
bx e
0f
0g
0h
0i
0j
0k
0l
b0 m
b0 n
bx o
x5
bx 6
x7
x8
x9
x:
x;
b10000111101000 !
bx <
0(
x0
x/
x.
x-
x,
x+
x*
x)
x1
x2
0H
0M
0L
0K
0J
0I
0Q
0P
0O
0N
0R
1S
0T
0U
xV
0W
0X
0G
0F
0E
0D
0C
1B
0A
0@
1?
1>
1=
$end
#542000
0"
0=
#1084000
1"
1=
b1010 [
0c
b1010 o
02
#1085000
0#
0>
b0 [
1]
1^
1_
0a
0`
0b
b0 d
b0 e
b0 o
00
0/
0.
0-
0,
0+
0*
0)
01
0V
#1626000
0"
0=
#2168000
1"
1=
#2170000
1#
b100110 6
07
08
09
0:
b1 3
05
0$
1>
0?
b1 n
1g
1f
1H
1R
#2710000
0"
0=
#3252000
1"
1=
b1010 [
b1 Y
b1010 o
b1 m
1M
0f
0g
1f
1g
#3794000
0"
0=
#4336000
1"
1=
b10 Y
0M
1L
0f
0g
1f
1g
#4340000
14
#4878000
0"
0=
#5420000
1"
1=
b11 Y
1M
0f
0g
1f
1g
#5962000
0"
0=
#6504000
1"
1=
b100 Y
0]
0M
0L
1K
0f
0g
1f
1g
#7046000
0"
0=
#7588000
1"
1=
b101 Y
0^
1M
0f
0g
1f
1g
0\
0S
#8130000
0"
0=
#8672000
1"
1=
b110 Y
0_
0M
1L
0f
0g
1f
1g
1i
1U
#8680000
04
#9214000
0"
0=
#9756000
1"
1=
b111 Y
1M
0f
0g
0i
1f
1g
0U
#10298000
0"
0=
#10840000
1"
1=
b0 Y
b1 Z
1Q
0M
0L
0K
b11 n
0f
0g
1f
1g
#10850000
b0 <
#11382000
0"
0=
#11924000
1"
1=
b1 Y
b11 m
1M
0f
0g
1f
1g
#12466000
0"
0=
#13008000
1"
1=
b10 Y
0M
1L
0f
0g
1f
1g
#13020000
14
#13550000
0"
0=
#14092000
1"
1=
b11 Y
1M
0f
0g
1f
1g
#14634000
0"
0=
#15176000
1"
1=
b100 Y
0M
0L
1K
0f
0g
1f
1g
#15718000
0"
0=
#16260000
1"
1=
b101 Y
1M
0f
0g
1f
1g
#16802000
0"
0=
#17344000
1"
1=
b110 Y
0M
1L
0f
0g
1f
1g
1k
1X
#17360000
04
#17886000
0"
0=
#18428000
1"
1=
b111 Y
b1 e
1M
0f
0g
0k
1f
1g
0X
#18970000
0"
0=
#19512000
1"
1=
b0 Y
b10 Z
0Q
1P
0M
0L
0K
0f
0g
1f
1g
#19530000
b1 <
15
1$
1?
0f
0g
1f
1g
#20054000
0"
0=
#20596000
1"
1=
b1 Y
1M
0f
0g
1f
1g
#21138000
0"
0=
#21680000
1"
1=
b10 Y
0M
1L
0f
0g
1f
1g
#21700000
14
#22222000
0"
0=
#22764000
1"
1=
b11 Y
1M
0f
0g
1f
1g
#23306000
0"
0=
#23848000
1"
1=
b100 Y
1]
0M
0L
1K
0f
0g
1f
1g
#24390000
0"
0=
#24932000
1"
1=
b101 Y
1^
1M
0f
0g
1f
1g
1\
1S
#25474000
0"
0=
#26016000
1"
1=
b110 Y
1_
0M
1L
0f
0g
1f
1g
1k
1X
#26040000
04
#26558000
0"
0=
#27100000
1"
1=
b111 Y
b10000000 d
b10 e
1)
1M
0f
0g
0k
1f
1g
0X
#27642000
0"
0=
#28184000
1"
1=
b0 Y
b11 Z
1Q
0M
0L
0K
0f
0g
1f
1g
#28210000
b10 <
#28726000
0"
0=
#29268000
1"
1=
b1 Y
1M
0f
0g
1f
1g
#29810000
0"
0=
#30352000
1"
1=
b10 Y
0M
1L
0f
0g
1f
1g
#30380000
14
#30894000
0"
0=
#31436000
1"
1=
b11 Y
1M
0f
0g
1f
1g
#31978000
0"
0=
#32520000
1"
1=
b100 Y
0M
0L
1K
0f
0g
1f
1g
#33062000
0"
0=
#33604000
1"
1=
b101 Y
1M
0f
0g
1f
1g
#34146000
0"
0=
#34688000
1"
1=
b110 Y
0M
1L
0f
0g
1f
1g
1k
1X
#34720000
04
#35230000
0"
0=
#35772000
1"
1=
b111 Y
b11000000 d
b11 e
1*
1M
0f
0g
0k
1f
1g
0X
#36314000
0"
0=
#36856000
1"
1=
b0 Y
b100 Z
0Q
0P
1O
0M
0L
0K
0f
0g
1f
1g
#36890000
b11 <
05
0$
0?
0f
0g
1f
1g
#37398000
0"
0=
#37940000
1"
1=
b1 Y
1M
0f
0g
1f
1g
#38482000
0"
0=
#39024000
1"
1=
b10 Y
0M
1L
0f
0g
1f
1g
#39060000
14
#39566000
0"
0=
#40108000
1"
1=
b11 Y
1M
0f
0g
1f
1g
#40650000
0"
0=
#41192000
1"
1=
b100 Y
0]
0M
0L
1K
0f
0g
1f
1g
#41734000
0"
0=
#42276000
1"
1=
b101 Y
0^
1M
0f
0g
1f
1g
0\
0S
#42818000
0"
0=
#43360000
1"
1=
b110 Y
0_
0M
1L
0f
0g
1f
1g
1k
1X
#43400000
04
#43902000
0"
0=
#44444000
1"
1=
b111 Y
b1100000 d
b100 e
1+
0)
1M
0f
0g
0k
1f
1g
0X
#44986000
0"
0=
#45528000
1"
1=
b0 Y
b101 Z
1Q
0M
0L
0K
0f
0g
1f
1g
#45570000
b100 <
#46070000
0"
0=
#46612000
1"
1=
b1 Y
1M
0f
0g
1f
1g
#47154000
0"
0=
#47696000
1"
1=
b10 Y
0M
1L
0f
0g
1f
1g
#47740000
14
#48238000
0"
0=
#48780000
1"
1=
b11 Y
1M
0f
0g
1f
1g
#49322000
0"
0=
#49864000
1"
1=
b100 Y
0M
0L
1K
0f
0g
1f
1g
#50406000
0"
0=
#50948000
1"
1=
b101 Y
1M
0f
0g
1f
1g
#51490000
0"
0=
#52032000
1"
1=
b110 Y
0M
1L
0f
0g
1f
1g
1k
1X
#52080000
04
#52574000
0"
0=
#53116000
1"
1=
b111 Y
b110000 d
b101 e
1,
0*
1M
0f
0g
0k
1f
1g
0X
#53658000
0"
0=
#54200000
1"
1=
b0 Y
b110 Z
0Q
1P
0M
0L
0K
0f
0g
1f
1g
#54250000
b101 <
15
1$
1?
0f
0g
1f
1g
#54742000
0"
0=
#55284000
1"
1=
b1 Y
1M
0f
0g
1f
1g
#55826000
0"
0=
#56368000
1"
1=
b10 Y
0M
1L
0f
0g
1f
1g
#56420000
14
#56910000
0"
0=
#57452000
1"
1=
b11 Y
1M
0f
0g
1f
1g
#57994000
0"
0=
#58536000
1"
1=
b100 Y
1]
0M
0L
1K
0f
0g
1f
1g
#59078000
0"
0=
#59620000
1"
1=
b101 Y
1^
1M
0f
0g
1f
1g
1\
1S
#60162000
0"
0=
#60704000
1"
1=
b110 Y
1_
0M
1L
0f
0g
1f
1g
1k
1X
#60760000
04
#61246000
0"
0=
#61788000
1"
1=
b111 Y
b10011000 d
b110 e
1-
0+
1)
1M
0f
0g
0k
1f
1g
0X
#62330000
0"
0=
#62872000
1"
1=
b0 Y
b111 Z
1Q
0M
0L
0K
0f
0g
1f
1g
#62930000
b110 <
05
0$
0?
0f
0g
1f
1g
#63414000
0"
0=
#63956000
1"
1=
b1 Y
1M
0f
0g
1f
1g
#64498000
0"
0=
#65040000
1"
1=
b10 Y
0M
1L
0f
0g
1f
1g
#65100000
14
#65582000
0"
0=
#66124000
1"
1=
b11 Y
1M
0f
0g
1f
1g
#66666000
0"
0=
#67208000
1"
1=
b100 Y
0]
0M
0L
1K
0f
0g
1f
1g
#67750000
0"
0=
#68292000
1"
1=
b101 Y
0^
1M
0f
0g
1f
1g
0\
0S
#68834000
0"
0=
#69376000
1"
1=
b110 Y
0_
0M
1L
0f
0g
1f
1g
1k
1X
#69440000
04
#69918000
0"
0=
#70460000
1"
1=
b111 Y
b1001100 d
b111 e
1.
0,
1*
0)
1M
0f
0g
0k
1f
1g
0X
#71002000
0"
0=
#71544000
1"
1=
b0 Y
b1000 Z
0Q
0P
0O
1N
0M
0L
0K
0f
0g
1f
1g
#71610000
b111 <
#72086000
0"
0=
#72628000
1"
1=
b1 Y
1M
0f
0g
1f
1g
#73170000
0"
0=
#73712000
1"
1=
b10 Y
0M
1L
0f
0g
1f
1g
#73780000
14
#74254000
0"
0=
#74796000
1"
1=
b11 Y
1M
0f
0g
1f
1g
#75338000
0"
0=
#75880000
1"
1=
b100 Y
0M
0L
1K
0f
0g
1f
1g
#76422000
0"
0=
#76964000
1"
1=
b101 Y
1M
0f
0g
1f
1g
#77506000
0"
0=
#78048000
1"
1=
b110 Y
0M
1L
0f
0g
1f
1g
1k
1X
#78120000
04
#78590000
0"
0=
#79132000
1"
1=
b111 Y
b100110 d
b0 e
1/
0-
1+
0*
1M
0f
0g
0k
1f
1g
0X
#79674000
0"
0=
#80216000
1"
1=
b0 Y
b1001 Z
1Q
0M
0L
0K
b110 n
0f
0g
1f
1g
#80290000
b1000 <
15
1$
1?
0f
0g
1f
1g
#80758000
0"
0=
#81300000
1"
1=
b1 Y
b110 m
1M
0f
0g
1f
1g
#81842000
0"
0=
#82384000
1"
1=
b10 Y
0M
1L
0f
0g
1f
1g
#82460000
14
#82926000
0"
0=
#83468000
1"
1=
b11 Y
1M
0f
0g
1f
1g
#84010000
0"
0=
#84552000
1"
1=
b100 Y
1]
0M
0L
1K
0f
0g
1f
1g
#85094000
0"
0=
#85636000
1"
1=
b101 Y
1^
1M
0f
0g
1f
1g
1\
1S
#86178000
0"
0=
#86720000
1"
1=
b110 Y
1_
0M
1L
0f
0g
1j
1f
1g
1W
#86800000
04
#87262000
0"
0=
#87804000
1"
1=
b111 Y
1M
0f
0g
0j
1f
1g
0W
#88346000
0"
0=
#88888000
1"
1=
b0 Y
b1010 Z
0Q
1P
0M
0L
0K
b0 n
0f
0g
1l
0H
1(
0R
#89430000
0"
0=
#89972000
1"
1=
b0 Z
b0 m
0P
0N
0l
0(
#90514000
0"
0=
#91056000
1"
1=
#91140000
14
#91598000
0"
0=
#92140000
1"
1=
#92682000
0"
0=
#93224000
1"
1=
#93766000
0"
0=
#94308000
1"
1=
#94850000
0"
0=
#95392000
1"
1=
#95480000
04
#95934000
0"
0=
#96476000
1"
1=
#97018000
0"
0=
#97560000
1"
1=
#97650000
b1110011 6
17
b10 3
1&
05
0$
1F
0?
1g
1f
b1 n
1H
1R
#98102000
0"
0=
#98644000
1"
1=
b1011 [
b1 Y
1a
b1011 o
b1 m
1M
0f
0g
1f
1g
#99186000
0"
0=
#99728000
1"
1=
b10 Y
0M
1L
0f
0g
1f
1g
#99820000
14
#100270000
0"
0=
#100812000
1"
1=
b11 Y
1M
0f
0g
1f
1g
#101354000
0"
0=
#101896000
1"
1=
b100 Y
0]
0M
0L
1K
0f
0g
1f
1g
#102438000
0"
0=
#102980000
1"
1=
b101 Y
0^
1M
0f
0g
1f
1g
0\
0S
#103522000
0"
0=
#104064000
1"
1=
b110 Y
0_
0M
1L
0f
0g
1f
1g
1i
1U
#104160000
04
#104606000
0"
0=
#105148000
1"
1=
b111 Y
1M
0f
0g
0i
1f
1g
0U
#105690000
0"
0=
#106232000
1"
1=
b0 Y
b1 Z
1Q
0M
0L
0K
b11 n
0f
0g
1f
1g
#106330000
b0 <
15
1$
1?
0f
0g
1f
1g
#106774000
0"
0=
#107316000
1"
1=
b1 Y
b11 m
1M
0f
0g
1f
1g
#107858000
0"
0=
#108400000
1"
1=
b10 Y
0M
1L
0f
0g
1f
1g
#108500000
14
#108942000
0"
0=
#109484000
1"
1=
b11 Y
1M
0f
0g
1f
1g
#110026000
0"
0=
#110568000
1"
1=
b100 Y
1]
0M
0L
1K
0f
0g
1f
1g
#111110000
0"
0=
#111652000
1"
1=
b101 Y
1^
1M
0f
0g
1f
1g
1\
1S
#112194000
0"
0=
#112736000
1"
1=
b110 Y
1_
0M
1L
0f
0g
1f
1g
1k
1X
#112840000
04
#113278000
0"
0=
#113820000
1"
1=
b111 Y
b10010011 d
b1 e
10
0.
1,
0+
1)
1M
0f
0g
0k
1f
1g
0X
#114362000
0"
0=
#114904000
1"
1=
b0 Y
b10 Z
0a
0Q
1P
0M
0L
0K
0f
0g
1f
1g
#115010000
b1 <
#115446000
0"
0=
#115988000
1"
1=
b1 Y
1M
0f
0g
1f
1g
#116530000
0"
0=
#117072000
1"
1=
b10 Y
0M
1L
0f
0g
1f
1g
#117180000
14
#117614000
0"
0=
#118156000
1"
1=
b11 Y
1M
0f
0g
1f
1g
#118698000
0"
0=
#119240000
1"
1=
b100 Y
0M
0L
1K
0f
0g
1f
1g
#119782000
0"
0=
#120324000
1"
1=
b101 Y
1M
0f
0g
1f
1g
#120866000
0"
0=
#121408000
1"
1=
b110 Y
0M
1L
0f
0g
1f
1g
1k
1X
#121520000
04
#121950000
0"
0=
#122492000
1"
1=
b111 Y
b11001001 d
b10 e
0/
1-
0,
1*
1M
0f
0g
0k
1f
1g
0X
#123034000
0"
0=
#123576000
1"
1=
b0 Y
b11 Z
1Q
0M
0L
0K
0f
0g
1f
1g
#123690000
b10 <
05
0$
0?
0f
0g
1f
1g
#124118000
0"
0=
#124660000
1"
1=
b1 Y
1M
0f
0g
1f
1g
#125202000
0"
0=
#125744000
1"
1=
b10 Y
0M
1L
0f
0g
1f
1g
#125860000
14
#126286000
0"
0=
#126828000
1"
1=
b11 Y
1M
0f
0g
1f
1g
#127370000
0"
0=
#127912000
1"
1=
b100 Y
0]
0M
0L
1K
0f
0g
1f
1g
#128454000
0"
0=
#128996000
1"
1=
b101 Y
0^
1M
0f
0g
1f
1g
0\
0S
#129538000
0"
0=
#130080000
1"
1=
b110 Y
0_
0M
1L
0f
0g
1f
1g
1k
1X
#130200000
04
#130622000
0"
0=
#131164000
1"
1=
b111 Y
b1100100 d
b11 e
00
1.
0-
1+
0)
1M
0f
0g
0k
1f
1g
0X
#131706000
0"
0=
#132248000
1"
1=
b0 Y
b100 Z
1a
0Q
0P
1O
0M
0L
0K
0f
0g
1f
1g
#132370000
b11 <
#132790000
0"
0=
#133332000
1"
1=
b1 Y
1M
0f
0g
1f
1g
#133874000
0"
0=
#134416000
1"
1=
b10 Y
0M
1L
0f
0g
1f
1g
#134540000
14
#134958000
0"
0=
#135500000
1"
1=
b11 Y
1M
0f
0g
1f
1g
#136042000
0"
0=
#136584000
1"
1=
b100 Y
0M
0L
1K
0f
0g
1f
1g
#137126000
0"
0=
#137668000
1"
1=
b101 Y
1M
0f
0g
1f
1g
#138210000
0"
0=
#138752000
1"
1=
b110 Y
0M
1L
0f
0g
1f
1g
1k
1X
#138880000
04
#139294000
0"
0=
#139836000
1"
1=
b111 Y
b110010 d
b100 e
1/
0.
1,
0*
1M
0f
0g
0k
1f
1g
0X
#140378000
0"
0=
#140920000
1"
1=
b0 Y
b101 Z
1Q
0M
0L
0K
0f
0g
1f
1g
#141050000
b100 <
15
1$
1?
0f
0g
1f
1g
#141462000
0"
0=
#142004000
1"
1=
b1 Y
1M
0f
0g
1f
1g
#142546000
0"
0=
#143088000
1"
1=
b10 Y
0M
1L
0f
0g
1f
1g
#143220000
14
#143630000
0"
0=
#144172000
1"
1=
b11 Y
1M
0f
0g
1f
1g
#144714000
0"
0=
#145256000
1"
1=
b100 Y
1]
0M
0L
1K
0f
0g
1f
1g
#145798000
0"
0=
#146340000
1"
1=
b101 Y
1^
1M
0f
0g
1f
1g
1\
1S
#146882000
0"
0=
#147424000
1"
1=
b110 Y
1_
0M
1L
0f
0g
1f
1g
1k
1X
#147560000
04
#147966000
0"
0=
#148508000
1"
1=
b111 Y
b10011001 d
b101 e
10
0/
1-
0+
1)
1M
0f
0g
0k
1f
1g
0X
#149050000
0"
0=
#149592000
1"
1=
b0 Y
b110 Z
0a
0Q
1P
0M
0L
0K
0f
0g
1f
1g
#149730000
b101 <
#150134000
0"
0=
#150676000
1"
1=
b1 Y
1M
0f
0g
1f
1g
#151218000
0"
0=
#151760000
1"
1=
b10 Y
0M
1L
0f
0g
1f
1g
#151900000
14
#152302000
0"
0=
#152844000
1"
1=
b11 Y
1M
0f
0g
1f
1g
#153386000
0"
0=
#153928000
1"
1=
b100 Y
0M
0L
1K
0f
0g
1f
1g
#154470000
0"
0=
#155012000
1"
1=
b101 Y
1M
0f
0g
1f
1g
#155554000
0"
0=
#156096000
1"
1=
b110 Y
0M
1L
0f
0g
1f
1g
1k
1X
#156240000
04
#156638000
0"
0=
#157180000
1"
1=
b111 Y
b11001100 d
b110 e
00
1.
0,
1*
1M
0f
0g
0k
1f
1g
0X
#157722000
0"
0=
#158264000
1"
1=
b0 Y
b111 Z
1Q
0M
0L
0K
0f
0g
1f
1g
#158410000
b110 <
#158806000
0"
0=
#159348000
1"
1=
b1 Y
1M
0f
0g
1f
1g
#159890000
0"
0=
#160432000
1"
1=
b10 Y
0M
1L
0f
0g
1f
1g
#160580000
14
#160974000
0"
0=
#161516000
1"
1=
b11 Y
1M
0f
0g
1f
1g
#162058000
0"
0=
#162600000
1"
1=
b100 Y
0M
0L
1K
0f
0g
1f
1g
#163142000
0"
0=
#163684000
1"
1=
b101 Y
1M
0f
0g
1f
1g
#164226000
0"
0=
#164768000
1"
1=
b110 Y
0M
1L
0f
0g
1f
1g
1k
1X
#164920000
04
#165310000
0"
0=
#165852000
1"
1=
b111 Y
b11100110 d
b111 e
1/
0-
1+
1M
0f
0g
0k
1f
1g
0X
#166394000
0"
0=
#166936000
1"
1=
b0 Y
b1000 Z
1a
0Q
0P
0O
1N
0M
0L
0K
0f
0g
1f
1g
#167090000
b111 <
05
0$
0?
0f
0g
1f
1g
#167478000
0"
0=
#168020000
1"
1=
b1 Y
1M
0f
0g
1f
1g
#168562000
0"
0=
#169104000
1"
1=
b10 Y
0M
1L
0f
0g
1f
1g
#169260000
14
#169646000
0"
0=
#170188000
1"
1=
b11 Y
1M
0f
0g
1f
1g
#170730000
0"
0=
#171272000
1"
1=
b100 Y
0]
0M
0L
1K
0f
0g
1f
1g
#171814000
0"
0=
#172356000
1"
1=
b101 Y
0^
1M
0f
0g
1f
1g
0\
0S
#172898000
0"
0=
#173440000
1"
1=
b110 Y
0_
0M
1L
0f
0g
1f
1g
1k
1X
#173600000
04
#173982000
0"
0=
#174524000
1"
1=
b111 Y
b1110011 d
b0 e
10
0.
1,
0)
1M
0f
0g
0k
1f
1g
0X
#175066000
0"
0=
#175608000
1"
1=
b0 Y
b1001 Z
1Q
0M
0L
0K
b10 n
0f
0g
1f
1g
#175770000
b1000 <
1;
15
1$
1?
0f
0g
1f
1g
#176150000
0"
0=
#176692000
1"
1=
b1 Y
b10 m
1M
0f
0g
1f
1g
#177234000
0"
0=
#177776000
1"
1=
b10 Y
0M
1L
0f
0g
1f
1g
#177940000
14
#178318000
0"
0=
#178860000
1"
1=
b11 Y
1M
0f
0g
1f
1g
#179402000
0"
0=
#179944000
1"
1=
b100 Y
1]
0M
0L
1K
0f
0g
1f
1g
#180486000
0"
0=
#181028000
1"
1=
b101 Y
1^
1M
0f
0g
1f
1g
1\
1S
#181570000
0"
0=
#182112000
1"
1=
b110 Y
1_
0M
1L
0f
0g
1f
1g
1h
1T
#182280000
04
#182654000
0"
0=
#183196000
1"
1=
b111 Y
1M
0f
0g
0h
1f
1g
0T
#183738000
0"
0=
#184280000
1"
1=
b0 Y
b1010 Z
0Q
1P
0M
0L
0K
b110 n
0f
0g
1f
1g
#184822000
0"
0=
#185364000
1"
1=
b1 Y
b110 m
1M
0f
0g
1f
1g
#185906000
0"
0=
#186448000
1"
1=
b10 Y
0M
1L
0f
0g
1f
1g
#186620000
14
#186990000
0"
0=
#187532000
1"
1=
b11 Y
1M
0f
0g
1f
1g
#188074000
0"
0=
#188616000
1"
1=
b100 Y
0M
0L
1K
0f
0g
1f
1g
#189158000
0"
0=
#189700000
1"
1=
b101 Y
1M
0f
0g
1f
1g
#190242000
0"
0=
#190784000
1"
1=
b110 Y
0M
1L
0f
0g
1j
1f
1g
1W
#190960000
04
#191326000
0"
0=
#191868000
1"
1=
b111 Y
1M
0f
0g
0j
1f
1g
0W
#192410000
0"
0=
#192952000
1"
1=
b0 Y
b1011 Z
1Q
0M
0L
0K
b0 n
0f
0g
1l
0H
1(
0R
#193130000
b11110101 6
18
b11 3
1'
05
0$
1G
0?
b1 n
0l
1l
#193494000
0"
0=
#194036000
1"
1=
b0 Z
0a
b1 m
0Q
0P
0N
0l
1f
1g
0(
1H
1R
#194578000
0"
0=
#195120000
1"
1=
b1 Y
1M
0f
0g
1f
1g
#195300000
14
#195662000
0"
0=
#196204000
1"
1=
b10 Y
0M
1L
0f
0g
1f
1g
#196746000
0"
0=
#197288000
1"
1=
b11 Y
1M
0f
0g
1f
1g
#197830000
0"
0=
#198372000
1"
1=
b100 Y
0]
0M
0L
1K
0f
0g
1f
1g
#198914000
0"
0=
#199456000
1"
1=
b101 Y
0^
1M
0f
0g
1f
1g
0\
0S
#199640000
04
#199998000
0"
0=
#200540000
1"
1=
b110 Y
0_
0M
1L
0f
0g
1f
1g
1i
1U
#201082000
0"
0=
#201624000
1"
1=
b111 Y
1M
0f
0g
0i
1f
1g
0U
#201810000
b0 <
15
1$
1?
0f
0g
1f
1g
#202166000
0"
0=
#202708000
1"
1=
b0 Y
b1 Z
1Q
0M
0L
0K
b11 n
0f
0g
1f
1g
#203250000
0"
0=
#203792000
1"
1=
b1 Y
b11 m
1M
0f
0g
1f
1g
#203980000
14
#204334000
0"
0=
#204876000
1"
1=
b10 Y
0M
1L
0f
0g
1f
1g
#205418000
0"
0=
#205960000
1"
1=
b11 Y
1M
0f
0g
1f
1g
#206502000
0"
0=
#207044000
1"
1=
b100 Y
1]
0M
0L
1K
0f
0g
1f
1g
#207586000
0"
0=
#208128000
1"
1=
b101 Y
1^
1M
0f
0g
1f
1g
1\
1S
#208320000
04
#208670000
0"
0=
#209212000
1"
1=
b110 Y
1_
0M
1L
0f
0g
1f
1g
1k
1X
#209754000
0"
0=
#210296000
1"
1=
b111 Y
b10111001 d
b1 e
0/
1-
0*
1)
1M
0f
0g
0k
1f
1g
0X
#210490000
b1 <
05
0$
0?
0f
0g
1f
1g
#210838000
0"
0=
#211380000
1"
1=
b0 Y
b10 Z
0Q
1P
0M
0L
0K
0f
0g
1f
1g
#211922000
0"
0=
#212464000
1"
1=
b1 Y
1M
0f
0g
1f
1g
#212660000
14
#213006000
0"
0=
#213548000
1"
1=
b10 Y
0M
1L
0f
0g
1f
1g
#214090000
0"
0=
#214632000
1"
1=
b11 Y
1M
0f
0g
1f
1g
#215174000
0"
0=
#215716000
1"
1=
b100 Y
0]
0M
0L
1K
0f
0g
1f
1g
#216258000
0"
0=
#216800000
1"
1=
b101 Y
0^
1M
0f
0g
1f
1g
0\
0S
#217000000
04
#217342000
0"
0=
